{
  "images" : [
    {
      "idiom" : "iphone",
      "filename" : "user.png",
      "scale" : "1x"
    },
    {
      "idiom" : "iphone",
      "filename" : "user_60x60.png",
      "scale" : "2x"
    },
    {
      "idiom" : "iphone",
      "filename" : "user_90x90.png",
      "scale" : "3x"
    },
    {
      "idiom" : "ipad",
      "filename" : "user_60x60-1.png",
      "scale" : "1x"
    },
    {
      "idiom" : "ipad",
      "filename" : "user_90x90-1.png",
      "scale" : "2x"
    }
  ],
  "info" : {
    "version" : 1,
    "author" : "xcode"
  }
}